<?xml version="1.0" encoding="UTF-8"?><svg xmlns="http://www.w3.org/2000/svg" xmlns:xlink="http://www.w3.org/1999/xlink" fill-opacity="1" color-rendering="auto" color-interpolation="auto" text-rendering="auto" stroke="black" stroke-linecap="square" width="571" stroke-miterlimit="10" shape-rendering="auto" stroke-opacity="1" fill="black" stroke-dasharray="none" font-weight="normal" stroke-width="1" height="416" font-family="'Dialog'" font-style="normal" stroke-linejoin="miter" font-size="12px" stroke-dashoffset="0" image-rendering="auto">
  <!--Generated by ySVG 2.5-->
  <defs id="genericDefs"/>
  <g>
    <defs id="defs1">
      <linearGradient x1="168.5" gradientUnits="userSpaceOnUse" x2="168.5" y1="239.5" y2="331" id="linearGradient1" spreadMethod="pad">
        <stop stop-opacity="1" stop-color="rgb(242,255,255)" offset="0%"/>
        <stop stop-opacity="1" stop-color="rgb(214,255,255)" offset="100%"/>
      </linearGradient>
      <linearGradient x1="515.5" gradientUnits="userSpaceOnUse" x2="515.5" y1="164" y2="359" id="linearGradient2" spreadMethod="pad">
        <stop stop-opacity="1" stop-color="rgb(242,255,242)" offset="0%"/>
        <stop stop-opacity="1" stop-color="rgb(214,255,214)" offset="100%"/>
      </linearGradient>
      <linearGradient x1="543" gradientUnits="userSpaceOnUse" x2="543" y1="218" y2="241" id="linearGradient3" spreadMethod="pad">
        <stop stop-opacity="1" stop-color="white" offset="0%"/>
        <stop stop-opacity="1" stop-color="white" offset="100%"/>
      </linearGradient>
      <linearGradient x1="543" gradientUnits="userSpaceOnUse" x2="543" y1="350" y2="373" id="linearGradient4" spreadMethod="pad">
        <stop stop-opacity="1" stop-color="white" offset="0%"/>
        <stop stop-opacity="1" stop-color="white" offset="100%"/>
      </linearGradient>
      <linearGradient x1="543" gradientUnits="userSpaceOnUse" x2="543" y1="477" y2="500" id="linearGradient5" spreadMethod="pad">
        <stop stop-opacity="1" stop-color="white" offset="0%"/>
        <stop stop-opacity="1" stop-color="white" offset="100%"/>
      </linearGradient>
      <linearGradient x1="198" gradientUnits="userSpaceOnUse" x2="198" y1="338" y2="361" id="linearGradient6" spreadMethod="pad">
        <stop stop-opacity="1" stop-color="white" offset="0%"/>
        <stop stop-opacity="1" stop-color="white" offset="100%"/>
      </linearGradient>
      <clipPath clipPathUnits="userSpaceOnUse" id="clipPath1">
        <path d="M0 0 L571 0 L571 416 L0 416 L0 0 Z"/>
      </clipPath>
      <clipPath clipPathUnits="userSpaceOnUse" id="clipPath2">
        <path d="M153 150 L724 150 L724 566 L153 566 L153 150 Z"/>
      </clipPath>
    </defs>
    <g fill="white" text-rendering="geometricPrecision" shape-rendering="geometricPrecision" transform="translate(-153,-150)" stroke="white">
      <rect x="153" width="571" height="416" y="150" clip-path="url(#clipPath2)" stroke="none"/>
    </g>
    <g fill="rgb(204,255,255)" text-rendering="geometricPrecision" shape-rendering="geometricPrecision" transform="matrix(1,0,0,1,-153,-150)" stroke="rgb(204,255,255)">
      <path d="M168.5 329 L345.5 329 L345.5 409.5 Q345.5 419.5 335.5 419.5 L178.5 419.5 Q168.5 419.5 168.5 409.5 Z" stroke="none" clip-path="url(#clipPath2)"/>
      <path fill="url(#linearGradient1)" d="M168.5 250.5 Q168.5 240.5 178.5 240.5 L335.5 240.5 Q345.5 240.5 345.5 250.5 L345.5 330 L168.5 330 Z" clip-path="url(#clipPath2)" stroke="none"/>
      <path fill="none" d="M170.5 250.5 Q170.5 242.5 178.5 242.5 L335.5 242.5 Q343.5 242.5 343.5 250.5 L343.5 409.5 Q343.5 417.5 335.5 417.5 L178.5 417.5 Q170.5 417.5 170.5 409.5 Z" stroke-width="2" clip-path="url(#clipPath2)" stroke="rgb(247,255,255)"/>
      <path fill="none" d="M170.5 250.5 Q170.5 242.5 178.5 242.5 L335.5 242.5 Q343.5 242.5 343.5 250.5 L343.5 409.5 Q343.5 417.5 335.5 417.5 L178.5 417.5 Q170.5 417.5 170.5 409.5 Z" clip-path="url(#clipPath2)"/>
    </g>
    <g font-size="14px" stroke-linecap="butt" transform="matrix(1,0,0,1,-153,-150)" text-rendering="geometricPrecision" font-family="sans-serif" shape-rendering="geometricPrecision" font-weight="bold" stroke-miterlimit="1.45">
      <text x="198.252" xml:space="preserve" y="259.4951" clip-path="url(#clipPath2)" stroke="none">remote project</text>
      <text x="218.1206" xml:space="preserve" y="275.792" clip-path="url(#clipPath2)" stroke="none">(optional)</text>
    </g>
    <g fill="rgb(204,255,204)" text-rendering="geometricPrecision" shape-rendering="geometricPrecision" transform="matrix(1,0,0,1,-153,-150)" stroke="rgb(204,255,204)">
      <path d="M515.5 357 L708.5 357 L708.5 541 Q708.5 551 698.5 551 L525.5 551 Q515.5 551 515.5 541 Z" stroke="none" clip-path="url(#clipPath2)"/>
      <path fill="url(#linearGradient2)" d="M515.5 175 Q515.5 165 525.5 165 L698.5 165 Q708.5 165 708.5 175 L708.5 358 L515.5 358 Z" clip-path="url(#clipPath2)" stroke="none"/>
      <path fill="none" d="M517.5 175 Q517.5 167 525.5 167 L698.5 167 Q706.5 167 706.5 175 L706.5 541 Q706.5 549 698.5 549 L525.5 549 Q517.5 549 517.5 541 Z" stroke-width="2" clip-path="url(#clipPath2)" stroke="rgb(247,255,247)"/>
      <path fill="none" d="M517.5 175 Q517.5 167 525.5 167 L698.5 167 Q706.5 167 706.5 175 L706.5 541 Q706.5 549 698.5 549 L525.5 549 Q517.5 549 517.5 541 Z" clip-path="url(#clipPath2)"/>
    </g>
    <g font-size="14px" stroke-linecap="butt" transform="matrix(1,0,0,1,-153,-150)" text-rendering="geometricPrecision" font-family="sans-serif" shape-rendering="geometricPrecision" font-weight="bold" stroke-miterlimit="1.45">
      <text x="563.1675" xml:space="preserve" y="183.9951" clip-path="url(#clipPath2)" stroke="none">local project</text>
    </g>
    <g fill="white" text-rendering="geometricPrecision" shape-rendering="geometricPrecision" transform="matrix(1,0,0,1,-153,-150)" stroke="white">
      <path d="M543 239 L657 239 L657 251 Q657 261 647 261 L553 261 Q543 261 543 251 Z" stroke="none" clip-path="url(#clipPath2)"/>
      <path fill="url(#linearGradient3)" d="M543 229 Q543 219 553 219 L647 219 Q657 219 657 229 L657 240 L543 240 Z" clip-path="url(#clipPath2)" stroke="none"/>
      <path fill="none" d="M545 229 Q545 221 553 221 L647 221 Q655 221 655 229 L655 251 Q655 259 647 259 L553 259 Q545 259 545 251 Z" stroke-width="2" clip-path="url(#clipPath2)"/>
      <path fill="none" d="M545 229 Q545 221 553 221 L647 221 Q655 221 655 229 L655 251 Q655 259 647 259 L553 259 Q545 259 545 251 Z" clip-path="url(#clipPath2)"/>
    </g>
    <g text-rendering="geometricPrecision" stroke-miterlimit="1.45" shape-rendering="geometricPrecision" font-family="sans-serif" transform="matrix(1,0,0,1,-153,-150)" stroke-linecap="butt">
      <text x="576.2021" xml:space="preserve" y="237.1699" clip-path="url(#clipPath2)" stroke="none">working</text>
      <text x="573.0264" xml:space="preserve" y="251.1387" clip-path="url(#clipPath2)" stroke="none">directory</text>
    </g>
    <g fill="white" text-rendering="geometricPrecision" shape-rendering="geometricPrecision" transform="matrix(1,0,0,1,-153,-150)" stroke="white">
      <path d="M543 371 L657 371 L657 383 Q657 393 647 393 L553 393 Q543 393 543 383 Z" stroke="none" clip-path="url(#clipPath2)"/>
      <path fill="url(#linearGradient4)" d="M543 361 Q543 351 553 351 L647 351 Q657 351 657 361 L657 372 L543 372 Z" clip-path="url(#clipPath2)" stroke="none"/>
      <path fill="none" d="M545 361 Q545 353 553 353 L647 353 Q655 353 655 361 L655 383 Q655 391 647 391 L553 391 Q545 391 545 383 Z" stroke-width="2" clip-path="url(#clipPath2)"/>
      <path fill="none" d="M545 361 Q545 353 553 353 L647 353 Q655 353 655 361 L655 383 Q655 391 647 391 L553 391 Q545 391 545 383 Z" clip-path="url(#clipPath2)"/>
    </g>
    <g text-rendering="geometricPrecision" stroke-miterlimit="1.45" shape-rendering="geometricPrecision" font-family="sans-serif" transform="matrix(1,0,0,1,-153,-150)" stroke-linecap="butt">
      <text x="583.4795" xml:space="preserve" y="376.1543" clip-path="url(#clipPath2)" stroke="none">index</text>
    </g>
    <g fill="white" text-rendering="geometricPrecision" shape-rendering="geometricPrecision" transform="matrix(1,0,0,1,-153,-150)" stroke="white">
      <path d="M543 498 L657 498 L657 510 Q657 520 647 520 L553 520 Q543 520 543 510 Z" stroke="none" clip-path="url(#clipPath2)"/>
      <path fill="url(#linearGradient5)" d="M543 488 Q543 478 553 478 L647 478 Q657 478 657 488 L657 499 L543 499 Z" clip-path="url(#clipPath2)" stroke="none"/>
      <path fill="none" d="M545 488 Q545 480 553 480 L647 480 Q655 480 655 488 L655 510 Q655 518 647 518 L553 518 Q545 518 545 510 Z" stroke-width="2" clip-path="url(#clipPath2)"/>
      <path fill="none" d="M545 488 Q545 480 553 480 L647 480 Q655 480 655 488 L655 510 Q655 518 647 518 L553 518 Q545 518 545 510 Z" clip-path="url(#clipPath2)"/>
    </g>
    <g text-rendering="geometricPrecision" stroke-miterlimit="1.45" shape-rendering="geometricPrecision" font-family="sans-serif" transform="matrix(1,0,0,1,-153,-150)" stroke-linecap="butt">
      <text x="585.0205" xml:space="preserve" y="503.1543" clip-path="url(#clipPath2)" stroke="none">head</text>
    </g>
    <g fill="white" text-rendering="geometricPrecision" shape-rendering="geometricPrecision" transform="matrix(1,0,0,1,-153,-150)" stroke="white">
      <path d="M198 359 L312 359 L312 371 Q312 381 302 381 L208 381 Q198 381 198 371 Z" stroke="none" clip-path="url(#clipPath2)"/>
      <path fill="url(#linearGradient6)" d="M198 349 Q198 339 208 339 L302 339 Q312 339 312 349 L312 360 L198 360 Z" clip-path="url(#clipPath2)" stroke="none"/>
      <path fill="none" d="M200 349 Q200 341 208 341 L302 341 Q310 341 310 349 L310 371 Q310 379 302 379 L208 379 Q200 379 200 371 Z" stroke-width="2" clip-path="url(#clipPath2)"/>
      <path fill="none" d="M200 349 Q200 341 208 341 L302 341 Q310 341 310 349 L310 371 Q310 379 302 379 L208 379 Q200 379 200 371 Z" clip-path="url(#clipPath2)"/>
    </g>
    <g text-rendering="geometricPrecision" stroke-miterlimit="1.45" shape-rendering="geometricPrecision" font-family="sans-serif" transform="matrix(1,0,0,1,-153,-150)" stroke-linecap="butt">
      <text x="240.0205" xml:space="preserve" y="364.1543" clip-path="url(#clipPath2)" stroke="none">head</text>
    </g>
    <g text-rendering="geometricPrecision" stroke-miterlimit="1.45" shape-rendering="geometricPrecision" transform="matrix(1,0,0,1,-153,-150)" stroke-linecap="butt">
      <path fill="none" d="M600 260.9795 L600 342.9939" clip-path="url(#clipPath2)"/>
    </g>
    <g text-rendering="geometricPrecision" stroke-miterlimit="1.45" shape-rendering="geometricPrecision" transform="matrix(1,0,0,1,-153,-150)" stroke-linecap="butt">
      <path d="M600 350.9939 L605 338.9939 L600 341.9939 L595 338.9939 Z" stroke="none" clip-path="url(#clipPath2)"/>
      <text x="603" xml:space="preserve" y="310.1543" clip-path="url(#clipPath2)" font-family="sans-serif" stroke="none">git add</text>
      <path fill="none" d="M600 392.991 L600 470.0104" clip-path="url(#clipPath2)"/>
      <path d="M600 478.0104 L605 466.0104 L600 469.0104 L595 466.0104 Z" clip-path="url(#clipPath2)" stroke="none"/>
      <text x="603" xml:space="preserve" y="439.6543" clip-path="url(#clipPath2)" font-family="sans-serif" stroke="none">git commit</text>
      <path fill="none" d="M548.0731 478.0787 L314.3307 383.9042" clip-path="url(#clipPath2)"/>
      <path d="M306.9103 380.9146 L316.1723 390.0368 L315.2582 384.278 L319.9094 380.7613 Z" clip-path="url(#clipPath2)" stroke="none"/>
      <text x="402.1397" xml:space="preserve" y="465.5606" clip-path="url(#clipPath2)" font-family="sans-serif" stroke="none">git push</text>
      <path fill="none" d="M310.296 340.7666 L537.1697 261.854" clip-path="url(#clipPath2)"/>
      <path d="M544.7256 259.2259 L531.7491 258.4456 L536.2252 262.1826 L535.0343 267.8906 Z" clip-path="url(#clipPath2)" stroke="none"/>
      <text x="368.821" xml:space="preserve" y="265.9166" clip-path="url(#clipPath2)" font-family="sans-serif" stroke="none">git clone (1st time)</text>
      <text x="384.4655" xml:space="preserve" y="279.8853" clip-path="url(#clipPath2)" font-family="sans-serif" stroke="none">git pull (after)</text>
    </g>
  </g>
</svg>
